(\d+),,,,,,,
"$1": {

,(\d+),(\d+):(\d+),(\d+):(\d+),(\d+):(\d+),(\d+):(\d+),(\d+):(\d+),(\d+):(\d+)
"$1":[[$2,$3],[$4,$5],[$6,$7],[$8,$9],[$10,$11],[$12,$13]],

,\n"(\d+)":\s\{
\n},\n"$1": {

# last line in dec
"31":\[(.*)\]\],
"31":[$1]]\n}}

# 00 to 12
\[00
[12

# remove 0 prefix
0(\d)
$1

#first line jan
"1":\s\{