<svg width="1vh"
    height="1vh"
	 viewBox="0 0 55.012 55.012" style="fill-rule: nonzero;" xml:space="preserve">
	<path d="M30.009,41.008v-19h-4v19l-6-5l-3,3l11,10l10-10l-3-3L30.009,41.008z M45.207,19.9c-1.17-5.648-4.598-8.892-9.199-8.892
		c-1.319,0-2.879,0.308-4.333,0.852c-3.163-4.176-6.8-5.856-10.205-5.856c-6.825,0-12.722,6.746-12.028,13.67
		c0.021,0.211,0.025,0.412,0.032,0.621c-4.453,0.977-9.716,5.574-9.465,10.713c0.251,5.139,3.761,10.955,9.399,10.955l3.601,0.045
		v-4l-3.601-0.037c-3.541,0-5.27-4.319-5.399-6.963c-0.146-2.989,3.551-6.205,6.327-6.814l3.252-0.714l-0.11-3.316l-0.003-0.084
		c-0.008-0.268-0.019-0.53-0.047-0.803c-0.224-2.233,0.647-4.672,2.33-6.525c1.591-1.751,3.672-2.756,5.712-2.756
		c4.253,0,6.823,4.024,8.812,6.649l2.802-1.048c4.391-1.642,7.24,0.474,8.2,5.109l0.725,3.301h3c2.685,0,6.092,2.547,6,6
		c-0.105,3.925-3.766,7.963-7.226,7.963l-1.774,0.037v4l1.774-0.045c5.931,0,11.072-6.196,11.226-11.955
		C55.162,24.248,50.087,19.9,45.207,19.9z"/>
</svg>
