<svg width="100%"
    height="100%"
    viewBox="0 0 200 158"
    style="fill-rule:evenodd;clip-rule:evenodd;stroke-linejoin:round;stroke-miterlimit:1.414;"
>
    <path
      d="M99.179 41.013c-27.084 0-53.375 11.55-71.692 31.87-1.192 1.192-1.992 2.784-1.608 3.975 0 2 .796 3.192 1.608 4.38 1.588.8 2.783 1.595 3.98 1.595 1.987 0 3.578-.795 4.378-1.991C52.166 63.32 75.28 53.362 99.18 53.362c24.283 0 47.787 9.959 64.116 28.284 1.196 1.187 2.784 1.979 4.38 1.979 1.191 0 2.795-.392 3.975-1.587 2.391-1.988 2.391-5.971.416-8.355-18.333-20.32-45.008-32.67-72.887-32.67z"
      class="on"
    />
    <path
      d="M197.941 43.013C172.45 15.533 136.608 0 99.18 0 62.133 0 27.09 15.133 1.599 41.808.4 43.013.005 44.608.005 46.2c0 1.988.796 3.183 1.987 4.38.8.787 2.392 1.587 3.984 1.587 1.604 0 2.787-.8 3.991-1.992 23.488-24.696 55.35-38.638 89.213-38.638 34.246 0 66.9 14.35 90.008 39.434 1.175 1.196 2.783 1.992 4.38 1.992 1.591 0 2.783-.4 3.979-1.596 1.191-1.192 1.991-2.384 1.991-3.975 0-1.592-.8-3.188-1.596-4.38zM99.562 123.458c-9.15 0-17.12 7.559-17.12 17.125 0 9.563 7.97 17.125 17.12 17.125 9.563 0 17.142-7.562 17.142-17.125 0-9.566-7.58-17.125-17.142-17.125zM99.179 85.63c-17.125 0-33.067 7.162-44.213 19.912-1.204 1.191-1.583 2.787-1.204 4.375 0 1.596.796 2.787 2.004 3.987.792.784 2.388 1.584 3.58 1.584 1.991 0 3.583-.8 4.779-1.992 8.766-10.342 21.495-16.33 35.054-16.33 13.941 0 27.087 5.988 36.237 17.13.796 1.192 2.784 1.987 4.38 1.987 1.204 0 2.795-.383 3.591-1.179 1.592-1.2 1.975-2.4 1.975-3.996.413-1.587 0-3.179-1.179-4.375-10.758-13.541-27.48-21.104-45.004-21.104z"
      class="on"
    />
</svg>
