{
"1": {
  "1":[[6,46],[8,39],[12,39],[14,18],[16,36],[18,22]],
  "2":[[6,46],[8,38],[12,40],[14,19],[16,37],[18,23]],
  "3":[[6,46],[8,38],[12,40],[14,20],[16,38],[18,24]],
  "4":[[6,46],[8,38],[12,41],[14,21],[16,39],[18,24]],
  "5":[[6,46],[8,38],[12,41],[14,22],[16,40],[18,25]],
  "6":[[6,46],[8,37],[12,41],[14,23],[16,41],[18,26]],
  "7":[[6,46],[8,37],[12,42],[14,24],[16,43],[18,28]],
  "8":[[6,46],[8,37],[12,42],[14,25],[16,44],[18,29]],
  "9":[[6,45],[8,36],[12,43],[14,26],[16,45],[18,30]],
  "10":[[6,45],[8,36],[12,43],[14,27],[16,46],[18,31]],
  "11":[[6,45],[8,35],[12,43],[14,29],[16,48],[18,32]],
  "12":[[6,44],[8,34],[12,44],[14,30],[16,49],[18,33]],
  "13":[[6,44],[8,34],[12,44],[14,31],[16,51],[18,34]],
  "14":[[6,43],[8,33],[12,44],[14,32],[16,52],[18,36]],
  "15":[[6,43],[8,32],[12,45],[14,33],[16,54],[18,37]],
  "16":[[6,42],[8,31],[12,45],[14,35],[16,55],[18,38]],
  "17":[[6,41],[8,30],[12,46],[14,36],[16,57],[18,40]],
  "18":[[6,41],[8,29],[12,46],[14,37],[16,58],[18,41]],
  "19":[[6,40],[8,28],[12,46],[14,39],[17,0],[18,42]],
  "20":[[6,39],[8,27],[12,46],[14,40],[17,2],[18,44]],
  "21":[[6,38],[8,26],[12,47],[14,41],[17,3],[18,45]],
  "22":[[6,37],[8,25],[12,47],[14,43],[17,5],[18,46]],
  "23":[[6,37],[8,24],[12,47],[14,44],[17,7],[18,48]],
  "24":[[6,36],[8,23],[12,48],[14,46],[17,8],[18,49]],
  "25":[[6,35],[8,21],[12,48],[14,47],[17,10],[18,51]],
  "26":[[6,34],[8,20],[12,48],[14,48],[17,12],[18,52]],
  "27":[[6,33],[8,19],[12,48],[14,50],[17,14],[18,54]],
  "28":[[6,32],[8,17],[12,48],[14,51],[17,15],[18,55]],
  "29":[[6,30],[8,16],[12,49],[14,53],[17,17],[18,57]],
  "30":[[6,29],[8,15],[12,49],[14,54],[17,19],[18,58]],
  "31":[[6,28],[8,13],[12,49],[14,56],[17,21],[19,0]]
},
"2": {
  "1":[[6,27],[8,12],[12,49],[14,57],[17,23],[19,1]],
  "2":[[6,26],[8,10],[12,49],[14,59],[17,25],[19,3]],
  "3":[[6,24],[8,8],[12,49],[15,0],[17,26],[19,5]],
  "4":[[6,23],[8,7],[12,50],[15,2],[17,28],[19,6]],
  "5":[[6,22],[8,5],[12,50],[15,3],[17,30],[19,8]],
  "6":[[6,20],[8,4],[12,50],[15,5],[17,32],[19,9]],
  "7":[[6,19],[8,2],[12,50],[15,6],[17,34],[19,11]],
  "8":[[6,17],[8,0],[12,50],[15,8],[17,36],[19,13]],
  "9":[[6,16],[7,58],[12,50],[15,9],[17,38],[19,14]],
  "10":[[6,14],[7,57],[12,50],[15,10],[17,39],[19,16]],
  "11":[[6,13],[7,55],[12,50],[15,12],[17,41],[19,17]],
  "12":[[6,11],[7,53],[12,50],[15,13],[17,43],[19,19]],
  "13":[[6,10],[7,51],[12,50],[15,15],[17,45],[19,21]],
  "14":[[6,8],[7,49],[12,50],[15,16],[17,47],[19,22]],
  "15":[[6,6],[7,47],[12,50],[15,18],[17,49],[19,24]],
  "16":[[6,5],[7,45],[12,50],[15,19],[17,51],[19,26]],
  "17":[[6,3],[7,43],[12,50],[15,21],[17,52],[19,27]],
  "18":[[6,1],[7,41],[12,50],[15,22],[17,54],[19,29]],
  "19":[[5,59],[7,39],[12,50],[15,23],[17,56],[19,31]],
  "20":[[5,57],[7,37],[12,50],[15,25],[17,58],[19,32]],
  "21":[[5,56],[7,35],[12,50],[15,26],[18,0],[19,34]],
  "22":[[5,54],[7,33],[12,50],[15,28],[18,2],[19,36]],
  "23":[[5,52],[7,31],[12,49],[15,29],[18,4],[19,37]],
  "24":[[5,50],[7,29],[12,49],[15,30],[18,5],[19,39]],
  "25":[[5,48],[7,27],[12,49],[15,32],[18,7],[19,41]],
  "26":[[5,46],[7,25],[12,49],[15,33],[18,9],[19,42]],
  "27":[[5,44],[7,23],[12,49],[15,34],[18,11],[19,44]],
  "28":[[5,42],[7,21],[12,49],[15,36],[18,13],[19,46]]
},
"3": {
  "1":[[5,40],[7,19],[12,49],[15,37],[18,15],[19,47]],
  "2":[[5,38],[7,17],[12,48],[15,38],[18,16],[19,49]],
  "3":[[5,36],[7,14],[12,48],[15,40],[18,18],[19,51]],
  "4":[[5,34],[7,12],[12,48],[15,41],[18,20],[19,52]],
  "5":[[5,32],[7,10],[12,48],[15,42],[18,22],[19,54]],
  "6":[[5,30],[7,8],[12,48],[15,43],[18,24],[19,56]],
  "7":[[5,28],[7,5],[12,47],[15,45],[18,25],[19,57]],
  "8":[[5,25],[7,3],[12,47],[15,46],[18,27],[19,59]],
  "9":[[5,23],[7,1],[12,47],[15,47],[18,29],[20,1]],
  "10":[[5,21],[6,59],[12,47],[15,48],[18,31],[20,3]],
  "11":[[5,19],[6,56],[12,46],[15,49],[18,32],[20,4]],
  "12":[[5,17],[6,54],[12,46],[15,51],[18,34],[20,6]],
  "13":[[5,14],[6,52],[12,46],[15,52],[18,36],[20,8]],
  "14":[[5,12],[6,50],[12,46],[15,53],[18,38],[20,9]],
  "15":[[5,10],[6,47],[12,45],[15,54],[18,39],[20,11]],
  "16":[[5,7],[6,45],[12,45],[15,55],[18,41],[20,13]],
  "17":[[5,5],[6,43],[12,45],[15,56],[18,43],[20,15]],
  "18":[[5,3],[6,40],[12,44],[15,57],[18,45],[20,16]],
  "19":[[5,0],[6,38],[12,44],[15,58],[18,46],[20,18]],
  "20":[[4,58],[6,36],[12,44],[15,59],[18,48],[20,20]],
  "21":[[4,56],[6,33],[12,44],[16,1],[18,50],[20,21]],
  "22":[[4,53],[6,31],[12,43],[16,2],[18,51],[20,23]],
  "23":[[4,51],[6,29],[12,43],[16,3],[18,53],[20,25]],
  "24":[[4,49],[6,26],[12,43],[16,4],[18,55],[20,27]],
  "25":[[4,44],[6,24],[12,42],[16,5],[18,56],[20,29]],
  "26":[[4,44],[6,22],[12,42],[16,6],[18,58],[20,30]],
  "27":[[4,41],[6,20],[12,42],[16,7],[19,0],[20,32]],
  "28":[[4,39],[6,17],[12,41],[16,8],[19,2],[20,34]],
  "29":[[4,36],[6,15],[12,41],[16,8],[19,3],[20,36]],
  "30":[[4,34],[6,13],[12,41],[16,9],[19,5],[20,37]],
  "31":[[4,31],[6,10],[12,40],[16,10],[19,7],[20,39]]
},
"4": {
  "1":[[4,29],[6,8],[12,40],[16,11],[19,8],[20,41]],
  "2":[[4,26],[6,6],[12,40],[16,12],[19,10],[20,43]],
  "3":[[4,24],[6,3],[12,39],[16,13],[19,12],[20,45]],
  "4":[[4,21],[6,1],[12,39],[16,14],[19,13],[20,47]],
  "5":[[4,19],[5,59],[12,39],[16,15],[19,15],[20,48]],
  "6":[[4,16],[5,56],[12,39],[16,16],[19,17],[20,50]],
  "7":[[4,14],[5,54],[12,38],[16,17],[19,18],[20,52]],
  "8":[[4,11],[5,52],[12,38],[16,17],[19,20],[20,54]],
  "9":[[4,9],[5,49],[12,38],[16,18],[19,22],[20,56]],
  "10":[[4,6],[5,47],[12,37],[16,19],[19,24],[20,58]],
  "11":[[4,4],[5,45],[12,37],[16,20],[19,25],[21,0]],
  "12":[[4,1],[5,43],[12,37],[16,21],[19,27],[21,2]],
  "13":[[3,59],[5,40],[12,37],[16,21],[19,29],[21,4]],
  "14":[[3,56],[5,38],[12,36],[16,22],[19,30],[21,6]],
  "15":[[3,54],[5,36],[12,36],[16,23],[19,32],[21,8]],
  "16":[[3,51],[5,34],[12,36],[16,24],[19,34],[21,10]],
  "17":[[3,49],[5,32],[12,35],[16,25],[19,35],[21,11]],
  "18":[[3,46],[5,29],[12,35],[16,25],[19,37],[21,13]],
  "19":[[3,44],[5,27],[12,35],[16,26],[19,39],[21,15]],
  "20":[[3,41],[5,25],[12,35],[16,27],[19,40],[21,17]],
  "21":[[3,39],[5,23],[12,35],[16,28],[19,42],[21,19]],
  "22":[[3,36],[5,21],[12,34],[16,28],[19,44],[21,21]],
  "23":[[3,34],[5,19],[12,34],[16,29],[19,46],[21,24]],
  "24":[[3,31],[5,17],[12,34],[16,30],[19,47],[21,26]],
  "25":[[3,29],[5,15],[12,34],[16,31],[19,49],[21,28]],
  "26":[[3,26],[5,13],[12,34],[16,31],[19,51],[21,30]],
  "27":[[3,24],[5,11],[12,33],[16,32],[19,52],[21,32]],
  "28":[[3,22],[5,9],[12,33],[16,33],[19,54],[21,34]],
  "29":[[3,19],[5,7],[12,33],[16,34],[19,56],[21,36]],
  "30":[[3,17],[5,5],[12,33],[16,34],[19,57],[21,38]]
},
"5": {
  "1":[[3,14],[5,3],[12,33],[16,35],[19,59],[21,40]],
  "2":[[3,12],[5,1],[12,33],[16,36],[20,1],[21,42]],
  "3":[[3,10],[4,59],[12,33],[16,36],[20,2],[21,44]],
  "4":[[3,7],[4,57],[12,33],[16,37],[20,4],[21,46]],
  "5":[[3,5],[4,55],[12,32],[16,38],[20,6],[21,48]],
  "6":[[3,3],[4,53],[12,32],[16,38],[20,7],[21,50]],
  "7":[[3,0],[4,52],[12,32],[16,39],[20,9],[21,53]],
  "8":[[2,58],[4,50],[12,32],[16,40],[20,11],[21,55]],
  "9":[[2,56],[4,48],[12,32],[16,40],[20,12],[21,57]],
  "10":[[2,53],[4,46],[12,32],[16,41],[20,14],[21,59]],
  "11":[[2,51],[4,45],[12,32],[16,42],[20,16],[22,1]],
  "12":[[2,49],[4,43],[12,32],[16,42],[20,17],[22,3]],
  "13":[[2,47],[4,41],[12,32],[16,43],[20,19],[22,5]],
  "14":[[2,45],[4,40],[12,32],[16,44],[20,20],[22,7]],
  "15":[[2,43],[4,38],[12,32],[16,44],[20,22],[22,9]],
  "16":[[2,41],[4,37],[12,32],[16,45],[20,24],[22,11]],
  "17":[[2,39],[4,35],[12,32],[16,45],[20,25],[22,13]],
  "18":[[2,36],[4,34],[12,32],[16,46],[20,27],[22,15]],
  "19":[[2,35],[4,32],[12,32],[16,47],[20,28],[22,15]],
  "20":[[2,33],[4,31],[12,32],[16,47],[20,30],[22,15]],
  "21":[[2,31],[4,30],[12,32],[16,48],[20,31],[22,15]],
  "22":[[2,29],[4,28],[12,32],[16,48],[20,33],[22,15]],
  "23":[[2,27],[4,27],[12,33],[16,49],[20,34],[22,16]],
  "24":[[2,25],[4,26],[12,33],[16,50],[20,35],[22,16]],
  "25":[[2,23],[4,25],[12,33],[16,50],[20,37],[22,16]],
  "26":[[2,22],[4,24],[12,33],[16,51],[20,38],[22,16]],
  "27":[[2,20],[4,23],[12,33],[16,51],[20,39],[22,17]],
  "28":[[2,18],[4,21],[12,33],[16,52],[20,41],[22,17]],
  "29":[[2,17],[4,20],[12,33],[16,52],[20,42],[22,17]],
  "30":[[2,15],[4,20],[12,33],[16,53],[20,43],[22,17]],
  "31":[[2,14],[4,19],[12,34],[16,53],[20,45],[22,18]]
},
"6": {
  "1":[[2,12],[4,18],[12,34],[16,54],[20,46],[22,18]],
  "2":[[2,11],[4,17],[12,34],[16,54],[20,47],[22,18]],
  "3":[[2,10],[4,16],[12,34],[16,55],[20,48],[22,18]],
  "4":[[2,8],[4,15],[12,34],[16,55],[20,49],[22,19]],
  "5":[[2,7],[4,15],[12,34],[16,56],[20,50],[22,20]],
  "6":[[2,6],[4,14],[12,35],[16,56],[20,51],[22,21]],
  "7":[[2,5],[4,14],[12,35],[16,57],[20,52],[22,22]],
  "8":[[2,4],[4,13],[12,35],[16,57],[20,53],[22,23]],
  "9":[[2,3],[4,12],[12,35],[16,57],[20,54],[22,24]],
  "10":[[2,2],[4,12],[12,35],[16,58],[20,55],[22,25]],
  "11":[[2,2],[4,12],[12,36],[16,58],[20,55],[22,25]],
  "12":[[2,1],[4,11],[12,36],[16,59],[20,56],[22,26]],
  "13":[[2,0],[4,11],[12,36],[16,59],[20,57],[22,27]],
  "14":[[2,0],[4,11],[12,36],[16,59],[20,57],[22,27]],
  "15":[[1,59],[4,11],[12,36],[17,0],[20,58],[22,28]],
  "16":[[1,59],[4,11],[12,37],[17,0],[20,59],[22,29]],
  "17":[[1,59],[4,10],[12,37],[17,0],[20,59],[22,29]],
  "18":[[1,59],[4,10],[12,37],[17,0],[20,59],[22,29]],
  "19":[[1,58],[4,10],[12,37],[17,1],[21,0],[22,30]],
  "20":[[1,58],[4,11],[12,37],[17,1],[21,0],[22,30]],
  "21":[[1,58],[4,11],[12,38],[17,1],[21,0],[22,30]],
  "22":[[1,59],[4,11],[12,38],[17,1],[21,1],[22,31]],
  "23":[[1,59],[4,11],[12,38],[17,2],[21,1],[22,31]],
  "24":[[1,59],[4,11],[12,38],[17,2],[21,1],[22,31]],
  "25":[[2,0],[4,12],[12,38],[17,2],[21,1],[22,31]],
  "26":[[2,0],[4,12],[12,39],[17,2],[21,1],[22,31]],
  "27":[[2,1],[4,12],[12,39],[17,2],[21,1],[22,31]],
  "28":[[2,1],[4,13],[12,39],[17,2],[21,1],[22,31]],
  "29":[[2,2],[4,13],[12,39],[17,2],[21,1],[22,31]],
  "30":[[2,3],[4,14],[12,39],[17,2],[21,1],[22,31]]
},
"7": {
  "1":[[2,4],[4,15],[12,39],[17,2],[21,0],[22,30]],
  "2":[[2,5],[4,15],[12,40],[17,3],[21,0],[22,30]],
  "3":[[2,6],[4,16],[12,40],[17,3],[21,0],[22,30]],
  "4":[[2,7],[4,17],[12,40],[17,2],[20,59],[22,29]],
  "5":[[2,8],[4,18],[12,40],[17,2],[20,59],[22,29]],
  "6":[[2,10],[4,18],[12,40],[17,2],[20,58],[22,29]],
  "7":[[2,11],[4,19],[12,40],[17,2],[20,58],[22,29]],
  "8":[[2,12],[4,20],[12,41],[17,2],[20,57],[22,29]],
  "9":[[2,14],[4,21],[12,41],[17,2],[20,56],[22,29]],
  "10":[[2,15],[4,22],[12,41],[17,2],[20,56],[22,29]],
  "11":[[2,17],[4,23],[12,41],[17,2],[20,55],[22,28]],
  "12":[[2,18],[4,24],[12,41],[17,2],[20,54],[22,28]],
  "13":[[2,20],[4,25],[12,41],[17,1],[20,53],[22,28]],
  "14":[[2,22],[4,26],[12,41],[17,1],[20,52],[22,28]],
  "15":[[2,23],[4,28],[12,41],[17,1],[20,51],[22,28]],
  "16":[[2,25],[4,29],[12,42],[17,1],[20,50],[22,28]],
  "17":[[2,27],[4,30],[12,42],[17,0],[20,49],[22,28]],
  "18":[[2,29],[4,31],[12,42],[17,0],[20,48],[22,28]],
  "19":[[2,30],[4,33],[12,42],[17,0],[20,47],[22,28]],
  "20":[[2,32],[4,34],[12,42],[16,59],[20,46],[22,28]],
  "21":[[2,34],[4,35],[12,42],[16,59],[20,45],[22,28]],
  "22":[[2,36],[4,36],[12,42],[16,58],[20,43],[22,28]],
  "23":[[2,38],[4,38],[12,42],[16,58],[20,42],[22,27]],
  "24":[[2,40],[4,39],[12,42],[16,58],[20,41],[22,27]],
  "25":[[2,42],[4,41],[12,42],[16,57],[20,39],[22,27]],
  "26":[[2,44],[4,42],[12,42],[16,57],[20,38],[22,27]],
  "27":[[2,46],[4,44],[12,42],[16,56],[20,37],[22,25]],
  "28":[[2,48],[4,45],[12,42],[16,55],[20,35],[22,23]],
  "29":[[2,50],[4,47],[12,42],[16,55],[20,34],[22,21]],
  "30":[[2,52],[4,48],[12,42],[16,54],[20,32],[22,19]],
  "31":[[2,54],[4,50],[12,42],[16,54],[20,30],[22,17]]
},
"8": {
  "1":[[2,57],[4,51],[12,42],[16,53],[20,29],[22,15]],
  "2":[[2,59],[4,53],[12,42],[16,52],[20,27],[22,13]],
  "3":[[3,1],[4,54],[12,42],[16,52],[20,26],[22,11]],
  "4":[[3,3],[4,56],[12,42],[16,51],[20,24],[22,9]],
  "5":[[3,5],[4,57],[12,42],[16,50],[20,22],[22,7]],
  "6":[[3,7],[4,59],[12,42],[16,49],[20,20],[22,4]],
  "7":[[3,9],[5,1],[12,42],[16,48],[20,19],[22,2]],
  "8":[[3,11],[5,2],[12,41],[16,48],[20,17],[22,0]],
  "9":[[3,13],[5,4],[12,41],[16,47],[20,15],[21,58]],
  "10":[[3,15],[5,5],[12,41],[16,46],[20,13],[21,55]],
  "11":[[3,18],[5,7],[12,41],[16,45],[20,11],[21,53]],
  "12":[[3,20],[5,9],[12,41],[16,44],[20,9],[21,51]],
  "13":[[3,22],[5,10],[12,41],[16,43],[20,7],[21,48]],
  "14":[[3,24],[5,12],[12,41],[16,42],[20,5],[21,46]],
  "15":[[3,26],[5,13],[12,40],[16,41],[20,4],[21,44]],
  "16":[[3,28],[5,15],[12,40],[16,40],[20,2],[21,41]],
  "17":[[3,30],[5,17],[12,40],[16,39],[20,0],[21,39]],
  "18":[[3,32],[5,18],[12,40],[16,38],[19,57],[21,37]],
  "19":[[3,34],[5,20],[12,40],[16,37],[19,55],[21,34]],
  "20":[[3,36],[5,22],[12,40],[16,36],[19,53],[21,32]],
  "21":[[3,38],[5,23],[12,39],[16,35],[19,51],[21,29]],
  "22":[[3,40],[5,25],[12,39],[16,34],[19,49],[21,27]],
  "23":[[3,42],[5,27],[12,39],[16,32],[19,47],[21,25]],
  "24":[[3,44],[5,28],[12,39],[16,31],[19,45],[21,22]],
  "25":[[3,46],[5,30],[12,38],[16,30],[19,43],[21,20]],
  "26":[[3,48],[5,32],[12,38],[16,29],[19,41],[21,17]],
  "27":[[3,50],[5,33],[12,38],[16,27],[19,39],[21,15]],
  "28":[[3,52],[5,35],[12,38],[16,26],[19,36],[21,12]],
  "29":[[3,54],[5,37],[12,37],[16,25],[19,34],[21,10]],
  "30":[[3,56],[5,38],[12,37],[16,24],[19,32],[21,7]],
  "31":[[3,58],[5,40],[12,37],[16,22],[19,30],[21,5]]
},
"9": {
  "1":[[4,0],[5,41],[12,36],[16,21],[19,27],[21,2]],
  "2":[[4,2],[5,43],[12,36],[16,19],[19,25],[21,0]],
  "3":[[4,4],[5,45],[12,36],[16,18],[19,23],[20,57]],
  "4":[[4,6],[5,46],[12,36],[16,17],[19,21],[20,55]],
  "5":[[4,8],[5,48],[12,35],[16,15],[19,18],[20,53]],
  "6":[[4,9],[5,50],[12,35],[16,14],[19,16],[20,50]],
  "7":[[4,11],[5,51],[12,35],[16,12],[19,14],[20,48]],
  "8":[[4,13],[5,53],[12,34],[16,11],[19,12],[20,45]],
  "9":[[4,15],[5,54],[12,34],[16,9],[19,9],[20,43]],
  "10":[[4,17],[5,56],[12,34],[16,8],[19,7],[20,40]],
  "11":[[4,19],[5,58],[12,33],[16,6],[19,5],[20,38]],
  "12":[[4,20],[5,59],[12,33],[16,5],[19,2],[20,35]],
  "13":[[4,22],[6,1],[12,32],[16,3],[19,0],[20,33]],
  "14":[[4,24],[6,3],[12,32],[16,2],[18,58],[20,30]],
  "15":[[4,26],[6,4],[12,32],[16,0],[18,55],[20,28]],
  "16":[[4,27],[6,6],[12,31],[15,58],[18,53],[20,25]],
  "17":[[4,29],[6,7],[12,31],[15,57],[18,51],[20,23]],
  "18":[[4,31],[6,9],[12,31],[15,55],[18,48],[20,20]],
  "19":[[4,33],[6,11],[12,30],[15,53],[18,46],[20,18]],
  "20":[[4,34],[6,12],[12,30],[15,52],[18,44],[20,16]],
  "21":[[4,36],[6,14],[12,30],[15,50],[18,41],[20,13]],
  "22":[[4,38],[6,15],[12,29],[15,48],[18,39],[20,11]],
  "23":[[4,39],[6,17],[12,29],[15,47],[18,36],[20,8]],
  "24":[[4,41],[6,19],[12,28],[15,45],[18,34],[20,6]],
  "25":[[4,43],[6,20],[12,28],[15,43],[18,32],[20,4]],
  "26":[[4,44],[6,22],[12,28],[15,42],[18,29],[20,1]],
  "27":[[4,46],[6,24],[12,27],[15,40],[18,27],[19,59]],
  "28":[[4,48],[6,25],[12,27],[15,38],[18,25],[19,56]],
  "29":[[4,49],[6,27],[12,27],[15,37],[18,22],[19,54]],
  "30":[[4,51],[6,28],[12,26],[15,35],[18,20],[19,52]]
},
"10": {
  "1":[[4,52],[6,30],[12,26],[15,33],[18,18],[19,49]],
  "2":[[4,54],[6,32],[12,26],[15,31],[18,15],[19,47]],
  "3":[[4,56],[6,33],[12,25],[15,30],[18,13],[19,45]],
  "4":[[4,57],[6,35],[12,25],[15,28],[18,11],[19,43]],
  "5":[[4,59],[6,37],[12,25],[15,26],[18,8],[19,40]],
  "6":[[5,1],[6,38],[12,24],[15,24],[18,6],[19,38]],
  "7":[[5,2],[6,40],[12,24],[15,23],[18,4],[19,36]],
  "8":[[5,4],[6,42],[12,24],[15,21],[18,1],[19,34]],
  "9":[[5,5],[6,43],[12,23],[15,19],[17,59],[19,31]],
  "10":[[5,7],[6,45],[12,23],[15,17],[17,57],[19,29]],
  "11":[[5,8],[6,47],[12,23],[15,16],[17,55],[19,27]],
  "12":[[5,10],[6,48],[12,22],[15,14],[17,52],[19,25]],
  "13":[[5,12],[6,50],[12,22],[15,12],[17,50],[19,23]],
  "14":[[5,13],[6,52],[12,22],[15,10],[17,48],[19,21]],
  "15":[[5,15],[6,53],[12,22],[15,9],[17,46],[19,19]],
  "16":[[5,16],[6,55],[12,21],[15,7],[17,44],[19,17]],
  "17":[[5,18],[6,57],[12,21],[15,5],[17,41],[19,15]],
  "18":[[5,19],[6,59],[12,21],[15,4],[17,39],[19,12]],
  "19":[[5,21],[7,0],[12,21],[15,2],[17,37],[19,11]],
  "20":[[5,23],[7,2],[12,20],[15,0],[17,35],[19,9]],
  "21":[[5,24],[7,4],[12,20],[14,59],[17,33],[19,7]],
  "22":[[5,26],[7,6],[12,20],[14,57],[17,31],[19,5]],
  "23":[[5,27],[7,7],[12,20],[14,55],[17,29],[19,3]],
  "24":[[5,29],[7,9],[12,20],[14,54],[17,27],[19,1]],
  "25":[[5,30],[7,11],[12,20],[14,52],[17,25],[18,59]],
  "26":[[5,32],[7,13],[12,20],[14,51],[17,23],[18,57]],
  "27":[[5,34],[7,14],[12,19],[14,49],[17,21],[18,56]],
  "28":[[5,35],[7,16],[12,19],[14,47],[17,19],[18,54]],
  "29":[[5,37],[7,18],[12,19],[14,46],[17,17],[18,52]],
  "30":[[5,38],[7,20],[12,19],[14,44],[17,15],[18,50]],
  "31":[[5,40],[7,22],[12,19],[14,43],[17,13],[18,49]]
},
"11": {
  "1":[[5,41],[7,23],[12,19],[14,42],[17,11],[18,47]],
  "2":[[5,43],[7,25],[12,19],[14,40],[17,9],[18,45]],
  "3":[[5,44],[7,27],[12,19],[14,39],[17,7],[18,44]],
  "4":[[5,46],[7,29],[12,19],[14,37],[17,6],[18,42]],
  "5":[[5,48],[7,31],[12,19],[14,36],[17,4],[18,41]],
  "6":[[5,49],[7,32],[12,19],[14,35],[17,2],[18,39]],
  "7":[[5,51],[7,34],[12,19],[14,33],[17,0],[18,38]],
  "8":[[5,52],[7,36],[12,19],[14,32],[16,59],[18,37]],
  "9":[[5,54],[7,38],[12,19],[14,31],[16,57],[18,35]],
  "10":[[5,55],[7,40],[12,20],[14,29],[16,55],[18,34]],
  "11":[[5,57],[7,41],[12,20],[14,28],[16,54],[18,33]],
  "12":[[5,58],[7,43],[12,20],[14,27],[16,52],[18,31]],
  "13":[[6,0],[7,45],[12,20],[14,26],[16,51],[18,30]],
  "14":[[6,1],[7,47],[12,20],[14,25],[16,49],[18,29]],
  "15":[[6,3],[7,48],[12,20],[14,24],[16,48],[18,28]],
  "16":[[6,4],[7,50],[12,20],[14,23],[16,47],[18,27]],
  "17":[[6,6],[7,52],[12,21],[14,22],[16,45],[18,26]],
  "18":[[6,7],[7,54],[12,21],[14,21],[16,44],[18,25]],
  "19":[[6,9],[7,55],[12,21],[14,20],[16,43],[18,24]],
  "20":[[6,10],[7,57],[12,21],[14,19],[16,42],[18,23]],
  "21":[[6,11],[7,59],[12,22],[14,18],[16,40],[18,22]],
  "22":[[6,13],[8,1],[12,22],[14,17],[16,39],[18,21]],
  "23":[[6,14],[8,2],[12,22],[14,16],[16,38],[18,20]],
  "24":[[6,16],[8,4],[12,22],[14,16],[16,37],[18,19]],
  "25":[[6,17],[8,6],[12,23],[14,15],[16,36],[18,18]],
  "26":[[6,18],[8,7],[12,23],[14,14],[16,35],[18,18]],
  "27":[[6,20],[8,9],[12,23],[14,13],[16,34],[18,17]],
  "28":[[6,21],[8,10],[12,24],[14,13],[16,33],[18,16]],
  "29":[[6,22],[8,12],[12,24],[14,12],[16,32],[18,16]],
  "30":[[6,24],[8,13],[12,25],[14,12],[16,32],[18,15]]
},
"12": {
  "1":[[6,25],[8,15],[12,25],[14,11],[16,31],[18,15]],
  "2":[[6,26],[8,16],[12,25],[14,11],[16,30],[18,14]],
  "3":[[6,27],[8,18],[12,26],[14,10],[16,30],[18,14]],
  "4":[[6,28],[8,19],[12,26],[14,10],[16,29],[18,14]],
  "5":[[6,29],[8,20],[12,27],[14,10],[16,29],[18,13]],
  "6":[[6,31],[8,22],[12,27],[14,10],[16,28],[18,13]],
  "7":[[6,32],[8,23],[12,27],[14,9],[16,28],[18,13]],
  "8":[[6,33],[8,24],[12,28],[14,9],[16,27],[18,13]],
  "9":[[6,34],[8,25],[12,28],[14,9],[16,27],[18,13]],
  "10":[[6,35],[8,26],[12,29],[14,9],[16,27],[18,12]],
  "11":[[6,36],[8,28],[12,29],[14,9],[16,27],[18,12]],
  "12":[[6,37],[8,29],[12,30],[14,9],[16,27],[18,12]],
  "13":[[6,37],[8,30],[12,30],[14,9],[16,27],[18,12]],
  "14":[[6,38],[8,31],[12,31],[14,9],[16,27],[18,13]],
  "15":[[6,39],[8,31],[12,31],[14,9],[16,27],[18,13]],
  "16":[[6,40],[8,32],[12,31],[14,9],[16,27],[18,13]],
  "17":[[6,41],[8,33],[12,32],[14,10],[16,27],[18,13]],
  "18":[[6,41],[8,34],[12,32],[14,10],[16,27],[18,13]],
  "19":[[6,42],[8,35],[12,33],[14,10],[16,27],[18,14]],
  "20":[[6,42],[8,35],[12,33],[14,11],[16,28],[18,14]],
  "21":[[6,43],[8,36],[12,34],[14,11],[16,28],[18,14]],
  "22":[[6,44],[8,36],[12,34],[14,11],[16,28],[18,15]],
  "23":[[6,44],[8,37],[12,35],[14,12],[16,29],[18,15]],
  "24":[[6,44],[8,37],[12,35],[14,12],[16,29],[18,16]],
  "25":[[6,45],[8,38],[12,36],[14,13],[16,30],[18,16]],
  "26":[[6,45],[8,38],[12,36],[14,14],[16,31],[18,17]],
  "27":[[6,46],[8,38],[12,37],[14,14],[16,31],[18,18]],
  "28":[[6,46],[8,38],[12,37],[14,15],[16,32],[18,18]],
  "29":[[6,46],[8,38],[12,38],[14,16],[16,33],[18,19]],
  "30":[[6,46],[8,39],[12,38],[14,16],[16,34],[18,20]],
  "31":[[6,46],[8,39],[12,39],[14,17],[16,35],[18,21]]
}
}
