{
"1": {
  "1":[[6,40],[8,33],[12,31],[14,8],[16,26],[18,12]],
  "2":[[6,40],[8,33],[12,32],[14,9],[16,27],[18,13]],
  "3":[[6,40],[8,32],[12,32],[14,10],[16,28],[18,14]],
  "4":[[6,40],[8,32],[12,32],[14,11],[16,29],[18,15]],
  "5":[[6,40],[8,32],[12,33],[14,12],[16,30],[18,16]],
  "6":[[6,40],[8,31],[12,33],[14,13],[16,31],[18,17]],
  "7":[[6,39],[8,31],[12,34],[14,14],[16,32],[18,18]],
  "8":[[6,39],[8,31],[12,34],[14,15],[16,34],[18,19]],
  "9":[[6,39],[8,30],[12,35],[14,16],[16,35],[18,20]],
  "10":[[6,38],[8,30],[12,35],[14,17],[16,36],[18,21]],
  "11":[[6,38],[8,29],[12,35],[14,19],[16,38],[18,22]],
  "12":[[6,38],[8,28],[12,36],[14,20],[16,39],[18,24]],
  "13":[[6,37],[8,27],[12,36],[14,21],[16,41],[18,25]],
  "14":[[6,37],[8,27],[12,36],[14,22],[16,42],[18,26]],
  "15":[[6,36],[8,26],[12,37],[14,23],[16,44],[18,27]],
  "16":[[6,35],[8,25],[12,37],[14,25],[16,45],[18,29]],
  "17":[[6,35],[8,24],[12,37],[14,26],[16,47],[18,30]],
  "18":[[6,34],[8,23],[12,38],[14,27],[16,48],[18,31]],
  "19":[[6,33],[8,22],[12,38],[14,29],[16,50],[18,33]],
  "20":[[6,32],[8,21],[12,38],[14,30],[16,52],[18,34]],
  "21":[[6,32],[8,20],[12,39],[14,31],[16,53],[18,36]],
  "22":[[6,31],[8,19],[12,39],[14,33],[16,55],[18,37]],
  "23":[[6,30],[8,18],[12,39],[14,34],[16,57],[18,38]],
  "24":[[6,29],[8,16],[12,39],[14,36],[16,59],[18,40]],
  "25":[[6,28],[8,15],[12,40],[14,37],[17,0],[18,41]],
  "26":[[6,27],[8,14],[12,40],[14,39],[17,2],[18,43]],
  "27":[[6,26],[8,12],[12,40],[14,40],[17,4],[18,44]],
  "28":[[6,25],[8,11],[12,40],[14,42],[17,6],[18,46]],
  "29":[[6,24],[8,9],[12,41],[14,43],[17,8],[18,48]],
  "30":[[6,22],[8,8],[12,41],[14,45],[17,9],[18,49]],
  "31":[[6,21],[8,7],[12,41],[14,46],[17,11],[18,51]]
},
"2": {
  "1":[[6,20],[8,5],[12,41],[14,47],[17,13],[18,52]],
  "2":[[6,19],[8,3],[12,41],[14,49],[17,15],[18,54]],
  "3":[[6,17],[8,2],[12,41],[14,50],[17,17],[18,55]],
  "4":[[6,16],[8,0],[12,41],[14,52],[17,19],[18,57]],
  "5":[[6,15],[7,58],[12,42],[14,54],[17,21],[18,59]],
  "6":[[6,13],[7,57],[12,42],[14,55],[17,23],[19,0]],
  "7":[[6,12],[7,55],[12,42],[14,57],[17,24],[19,2]],
  "8":[[6,10],[7,53],[12,42],[14,58],[17,26],[19,4]],
  "9":[[6,9],[7,52],[12,42],[15,0],[17,28],[19,5]],
  "10":[[6,7],[7,50],[12,42],[15,1],[17,30],[19,7]],
  "11":[[6,6],[7,48],[12,42],[15,3],[17,32],[19,8]],
  "12":[[6,4],[7,46],[12,42],[15,4],[17,34],[19,10]],
  "13":[[6,2],[7,44],[12,42],[15,5],[17,36],[19,12]],
  "14":[[6,1],[7,42],[12,42],[15,7],[17,38],[19,13]],
  "15":[[5,59],[7,40],[12,42],[15,8],[17,40],[19,15]],
  "16":[[5,57],[7,38],[12,42],[15,10],[17,42],[19,17]],
  "17":[[5,55],[7,36],[12,42],[15,11],[17,43],[19,18]],
  "18":[[5,54],[7,34],[12,42],[15,13],[17,45],[19,20]],
  "19":[[5,52],[7,32],[12,42],[15,14],[17,47],[19,22]],
  "20":[[5,50],[7,30],[12,42],[15,16],[17,49],[19,24]],
  "21":[[5,48],[7,28],[12,42],[15,17],[17,51],[19,25]],
  "22":[[5,46],[7,26],[12,42],[15,19],[17,53],[19,27]],
  "23":[[5,44],[7,24],[12,41],[15,20],[17,55],[19,29]],
  "24":[[5,42],[7,22],[12,41],[15,21],[17,57],[19,30]],
  "25":[[5,41],[7,20],[12,41],[15,23],[17,59],[19,32]],
  "26":[[5,39],[7,18],[12,41],[15,24],[18,0],[19,34]],
  "27":[[5,37],[7,16],[12,41],[15,25],[18,2],[19,35]],
  "28":[[5,35],[7,13],[12,41],[15,27],[18,4],[19,37]]
},
"3": {
  "1":[[5,32],[7,11],[12,41],[15,28],[18,6],[19,39]],
  "2":[[5,30],[7,9],[12,40],[15,29],[18,8],[19,41]],
  "3":[[5,28],[7,7],[12,40],[15,31],[18,10],[19,42]],
  "4":[[5,26],[7,5],[12,40],[15,32],[18,11],[19,44]],
  "5":[[5,24],[7,2],[12,40],[15,33],[18,13],[19,46]],
  "6":[[5,22],[7,0],[12,40],[15,35],[18,15],[19,47]],
  "7":[[5,20],[6,58],[12,39],[15,36],[18,17],[19,49]],
  "8":[[5,18],[6,56],[12,39],[15,37],[18,19],[19,51]],
  "9":[[5,15],[6,53],[12,39],[15,38],[18,20],[19,53]],
  "10":[[5,13],[6,51],[12,39],[15,40],[18,22],[19,54]],
  "11":[[5,11],[6,49],[12,38],[15,41],[18,24],[19,56]],
  "12":[[5,9],[6,46],[12,38],[15,42],[18,26],[19,58]],
  "13":[[5,6],[6,44],[12,38],[15,43],[18,28],[19,59]],
  "14":[[5,4],[6,42],[12,38],[15,44],[18,29],[20,1]],
  "15":[[5,2],[6,39],[12,37],[15,45],[18,31],[20,3]],
  "16":[[4,59],[6,37],[12,37],[15,47],[18,33],[20,5]],
  "17":[[4,57],[6,35],[12,37],[15,48],[18,35],[20,6]],
  "18":[[4,55],[6,32],[12,36],[15,49],[18,36],[20,8]],
  "19":[[4,52],[6,30],[12,36],[15,50],[18,38],[20,10]],
  "20":[[4,50],[6,28],[12,36],[15,51],[18,40],[20,12]],
  "21":[[4,48],[6,25],[12,36],[15,52],[18,42],[20,13]],
  "22":[[4,45],[6,23],[12,35],[15,53],[18,43],[20,15]],
  "23":[[4,43],[6,21],[12,35],[15,54],[18,45],[20,17]],
  "24":[[4,40],[6,18],[12,35],[15,55],[18,47],[20,19]],
  "25":[[4,44],[6,16],[12,34],[15,56],[18,49],[20,21]],
  "26":[[4,35],[6,14],[12,34],[15,57],[18,50],[20,22]],
  "27":[[4,33],[6,11],[12,34],[15,58],[18,52],[20,24]],
  "28":[[4,31],[6,9],[12,33],[15,59],[18,54],[20,26]],
  "29":[[4,28],[6,6],[12,33],[16,0],[18,56],[20,28]],
  "30":[[4,26],[6,4],[12,33],[16,1],[18,57],[20,30]],
  "31":[[4,23],[6,2],[12,32],[16,2],[18,59],[20,32]]
},
"4": {
  "1":[[4,21],[5,59],[12,32],[16,3],[19,1],[20,33]],
  "2":[[4,18],[5,57],[12,32],[16,4],[19,2],[20,35]],
  "3":[[4,16],[5,55],[12,31],[16,5],[19,4],[20,37]],
  "4":[[4,13],[5,52],[12,31],[16,6],[19,6],[20,39]],
  "5":[[4,11],[5,50],[12,31],[16,7],[19,8],[20,41]],
  "6":[[4,8],[5,48],[12,30],[16,8],[19,9],[20,43]],
  "7":[[4,5],[5,45],[12,30],[16,8],[19,11],[20,45]],
  "8":[[4,3],[5,43],[12,30],[16,9],[19,13],[20,47]],
  "9":[[4,0],[5,41],[12,30],[16,10],[19,14],[20,48]],
  "10":[[3,58],[5,38],[12,29],[16,11],[19,16],[20,50]],
  "11":[[3,55],[5,36],[12,29],[16,12],[19,18],[20,52]],
  "12":[[3,53],[5,34],[12,29],[16,13],[19,20],[20,54]],
  "13":[[3,50],[5,32],[12,28],[16,13],[19,21],[20,56]],
  "14":[[3,48],[5,29],[12,28],[16,14],[19,23],[20,58]],
  "15":[[3,45],[5,27],[12,28],[16,15],[19,25],[21,0]],
  "16":[[3,43],[5,25],[12,28],[16,16],[19,26],[21,2]],
  "17":[[3,40],[5,23],[12,27],[16,17],[19,28],[21,4]],
  "18":[[3,38],[5,20],[12,27],[16,18],[19,30],[21,6]],
  "19":[[3,35],[5,18],[12,27],[16,18],[19,32],[21,8]],
  "20":[[3,33],[5,16],[12,27],[16,19],[19,33],[21,10]],
  "21":[[3,30],[5,14],[12,27],[16,20],[19,35],[21,12]],
  "22":[[3,28],[5,12],[12,26],[16,21],[19,37],[21,14]],
  "23":[[3,25],[5,10],[12,26],[16,21],[19,39],[21,16]],
  "24":[[3,23],[5,7],[12,26],[16,22],[19,40],[21,18]],
  "25":[[3,20],[5,5],[12,26],[16,23],[19,42],[21,20]],
  "26":[[3,18],[5,3],[12,26],[16,24],[19,44],[21,22]],
  "27":[[3,15],[5,1],[12,25],[16,24],[19,45],[21,24]],
  "28":[[3,13],[4,59],[12,25],[16,25],[19,47],[21,27]],
  "29":[[3,10],[4,57],[12,25],[16,26],[19,49],[21,29]],
  "30":[[3,8],[4,55],[12,25],[16,27],[19,51],[21,31]]
},
"5": {
  "1":[[3,5],[4,53],[12,25],[16,27],[19,52],[21,33]],
  "2":[[3,3],[4,51],[12,25],[16,28],[19,54],[21,35]],
  "3":[[3,1],[4,49],[12,25],[16,29],[19,56],[21,37]],
  "4":[[2,58],[4,47],[12,24],[16,29],[19,57],[21,39]],
  "5":[[2,56],[4,46],[12,24],[16,30],[19,59],[21,41]],
  "6":[[2,54],[4,44],[12,24],[16,31],[20,1],[21,43]],
  "7":[[2,51],[4,42],[12,24],[16,32],[20,3],[21,45]],
  "8":[[2,49],[4,40],[12,24],[16,32],[20,4],[21,48]],
  "9":[[2,47],[4,38],[12,24],[16,33],[20,6],[21,50]],
  "10":[[2,44],[4,37],[12,24],[16,34],[20,8],[21,52]],
  "11":[[2,42],[4,35],[12,24],[16,34],[20,9],[21,54]],
  "12":[[2,40],[4,33],[12,24],[16,35],[20,11],[21,56]],
  "13":[[2,38],[4,32],[12,24],[16,36],[20,13],[21,58]],
  "14":[[2,36],[4,30],[12,24],[16,36],[20,14],[22,0]],
  "15":[[2,34],[4,28],[12,24],[16,37],[20,16],[22,2]],
  "16":[[2,32],[4,27],[12,24],[16,37],[20,17],[22,4]],
  "17":[[2,29],[4,25],[12,24],[16,38],[20,19],[22,6]],
  "18":[[2,27],[4,24],[12,24],[16,39],[20,20],[22,8]],
  "19":[[2,25],[4,22],[12,24],[16,39],[20,22],[22,8]],
  "20":[[2,23],[4,21],[12,24],[16,40],[20,24],[22,8]],
  "21":[[2,22],[4,20],[12,24],[16,41],[20,25],[22,8]],
  "22":[[2,20],[4,18],[12,24],[16,41],[20,27],[22,8]],
  "23":[[2,18],[4,17],[12,25],[16,42],[20,28],[22,9]],
  "24":[[2,16],[4,16],[12,25],[16,42],[20,29],[22,9]],
  "25":[[2,14],[4,15],[12,25],[16,43],[20,31],[22,9]],
  "26":[[2,13],[4,13],[12,25],[16,43],[20,32],[22,9]],
  "27":[[2,11],[4,12],[12,25],[16,44],[20,34],[22,9]],
  "28":[[2,9],[4,11],[12,25],[16,45],[20,35],[22,10]],
  "29":[[2,8],[4,10],[12,25],[16,45],[20,36],[22,10]],
  "30":[[2,6],[4,9],[12,25],[16,46],[20,38],[22,10]],
  "31":[[2,5],[4,8],[12,26],[16,46],[20,39],[22,10]]
},
"6": {
  "1":[[2,3],[4,7],[12,26],[16,47],[20,40],[22,10]],
  "2":[[2,2],[4,7],[12,26],[16,47],[20,41],[22,11]],
  "3":[[2,1],[4,6],[12,26],[16,48],[20,42],[22,12]],
  "4":[[1,59],[4,5],[12,26],[16,48],[20,43],[22,13]],
  "5":[[1,58],[4,4],[12,26],[16,49],[20,44],[22,14]],
  "6":[[1,57],[4,4],[12,27],[16,49],[20,45],[22,15]],
  "7":[[1,56],[4,3],[12,27],[16,49],[20,46],[22,16]],
  "8":[[1,55],[4,2],[12,27],[16,50],[20,47],[22,17]],
  "9":[[1,54],[4,2],[12,27],[16,50],[20,48],[22,18]],
  "10":[[1,53],[4,2],[12,27],[16,51],[20,49],[22,19]],
  "11":[[1,53],[4,1],[12,27],[16,51],[20,50],[22,20]],
  "12":[[1,52],[4,1],[12,28],[16,51],[20,51],[22,21]],
  "13":[[1,51],[4,0],[12,28],[16,52],[20,51],[22,21]],
  "14":[[1,51],[4,0],[12,28],[16,52],[20,52],[22,22]],
  "15":[[1,50],[4,0],[12,28],[16,52],[20,52],[22,22]],
  "16":[[1,50],[4,0],[12,28],[16,53],[20,53],[22,23]],
  "17":[[1,50],[4,0],[12,29],[16,53],[20,54],[22,24]],
  "18":[[1,49],[4,0],[12,29],[16,53],[20,54],[22,24]],
  "19":[[1,49],[4,0],[12,29],[16,54],[20,54],[22,24]],
  "20":[[1,49],[4,0],[12,29],[16,54],[20,55],[22,25]],
  "21":[[1,49],[4,0],[12,29],[16,54],[20,55],[22,25]],
  "22":[[1,50],[4,0],[12,30],[16,54],[20,55],[22,25]],
  "23":[[1,50],[4,0],[12,30],[16,54],[20,55],[22,25]],
  "24":[[1,50],[4,1],[12,30],[16,55],[20,55],[22,25]],
  "25":[[1,51],[4,1],[12,30],[16,55],[20,56],[22,26]],
  "26":[[1,51],[4,1],[12,30],[16,55],[20,56],[22,26]],
  "27":[[1,52],[4,2],[12,31],[16,55],[20,56],[22,26]],
  "28":[[1,52],[4,2],[12,31],[16,55],[20,55],[22,25]],
  "29":[[1,53],[4,3],[12,31],[16,55],[20,55],[22,25]],
  "30":[[1,54],[4,3],[12,31],[16,55],[20,55],[22,25]]
},
"7": {
  "1":[[1,55],[4,4],[12,31],[16,55],[20,55],[22,25]],
  "2":[[1,56],[4,5],[12,32],[16,55],[20,54],[22,25]],
  "3":[[1,57],[4,5],[12,32],[16,55],[20,54],[22,25]],
  "4":[[1,58],[4,6],[12,32],[16,55],[20,54],[22,24]],
  "5":[[1,59],[4,7],[12,32],[16,55],[20,53],[22,24]],
  "6":[[2,0],[4,8],[12,32],[16,55],[20,53],[22,24]],
  "7":[[2,2],[4,9],[12,32],[16,55],[20,52],[22,24]],
  "8":[[2,3],[4,10],[12,33],[16,55],[20,51],[22,24]],
  "9":[[2,5],[4,11],[12,33],[16,55],[20,51],[22,23]],
  "10":[[2,6],[4,12],[12,33],[16,55],[20,50],[22,23]],
  "11":[[2,8],[4,13],[12,33],[16,55],[20,49],[22,23]],
  "12":[[2,9],[4,14],[12,33],[16,54],[20,48],[22,23]],
  "13":[[2,11],[4,15],[12,33],[16,54],[20,47],[22,23]],
  "14":[[2,12],[4,16],[12,33],[16,54],[20,47],[22,22]],
  "15":[[2,14],[4,17],[12,33],[16,54],[20,46],[22,22]],
  "16":[[2,16],[4,18],[12,33],[16,53],[20,45],[22,22]],
  "17":[[2,18],[4,20],[12,34],[16,53],[20,43],[22,22]],
  "18":[[2,20],[4,21],[12,34],[16,53],[20,42],[22,22]],
  "19":[[2,21],[4,22],[12,34],[16,52],[20,41],[22,22]],
  "20":[[2,23],[4,24],[12,34],[16,52],[20,40],[22,21]],
  "21":[[2,25],[4,25],[12,34],[16,52],[20,39],[22,21]],
  "22":[[2,27],[4,26],[12,34],[16,51],[20,37],[22,21]],
  "23":[[2,29],[4,28],[12,34],[16,51],[20,36],[22,21]],
  "24":[[2,31],[4,29],[12,34],[16,50],[20,35],[22,21]],
  "25":[[2,33],[4,31],[12,34],[16,50],[20,33],[22,21]],
  "26":[[2,35],[4,32],[12,34],[16,49],[20,32],[22,20]],
  "27":[[2,37],[4,34],[12,34],[16,49],[20,30],[22,18]],
  "28":[[2,39],[4,35],[12,34],[16,48],[20,29],[22,16]],
  "29":[[2,41],[4,37],[12,34],[16,47],[20,27],[22,14]],
  "30":[[2,43],[4,38],[12,34],[16,47],[20,26],[22,12]],
  "31":[[2,45],[4,40],[12,34],[16,46],[20,24],[22,10]]
},
"8": {
  "1":[[2,47],[4,41],[12,34],[16,45],[20,23],[22,8]],
  "2":[[2,50],[4,43],[12,34],[16,45],[20,21],[22,6]],
  "3":[[2,52],[4,44],[12,34],[16,44],[20,19],[22,4]],
  "4":[[2,54],[4,46],[12,34],[16,43],[20,17],[22,2]],
  "5":[[2,56],[4,48],[12,34],[16,43],[20,16],[22,0]],
  "6":[[2,58],[4,49],[12,34],[16,42],[20,14],[21,57]],
  "7":[[3,0],[4,51],[12,33],[16,41],[20,12],[21,55]],
  "8":[[3,2],[4,52],[12,33],[16,40],[20,10],[21,53]],
  "9":[[3,4],[4,54],[12,33],[16,39],[20,8],[21,51]],
  "10":[[3,7],[4,56],[12,33],[16,38],[20,7],[21,48]],
  "11":[[3,9],[4,57],[12,33],[16,37],[20,5],[21,46]],
  "12":[[3,11],[4,59],[12,33],[16,36],[20,3],[21,44]],
  "13":[[3,13],[5,1],[12,33],[16,35],[20,1],[21,41]],
  "14":[[3,15],[5,2],[12,33],[16,34],[19,59],[21,39]],
  "15":[[3,17],[5,4],[12,32],[16,33],[19,57],[21,37]],
  "16":[[3,19],[5,6],[12,32],[16,32],[19,55],[21,34]],
  "17":[[3,21],[5,7],[12,32],[16,31],[19,53],[21,32]],
  "18":[[3,23],[5,9],[12,32],[16,30],[19,51],[21,29]],
  "19":[[3,25],[5,11],[12,32],[16,29],[19,49],[21,27]],
  "20":[[3,27],[5,12],[12,31],[16,28],[19,47],[21,25]],
  "21":[[3,30],[5,14],[12,31],[16,27],[19,44],[21,22]],
  "22":[[3,32],[5,16],[12,31],[16,26],[19,42],[21,20]],
  "23":[[3,34],[5,18],[12,31],[16,25],[19,40],[21,17]],
  "24":[[3,36],[5,19],[12,31],[16,23],[19,38],[21,15]],
  "25":[[3,38],[5,21],[12,30],[16,22],[19,36],[21,12]],
  "26":[[3,40],[5,23],[12,30],[16,21],[19,34],[21,10]],
  "27":[[3,42],[5,24],[12,30],[16,20],[19,31],[21,7]],
  "28":[[3,44],[5,26],[12,30],[16,18],[19,29],[21,5]],
  "29":[[3,46],[5,28],[12,29],[16,17],[19,27],[21,2]],
  "30":[[3,48],[5,29],[12,29],[16,16],[19,25],[21,0]],
  "31":[[3,49],[5,31],[12,29],[16,14],[19,22],[20,57]]
},
"9": {
  "1":[[3,51],[5,33],[12,28],[16,13],[19,20],[20,55]],
  "2":[[3,53],[5,34],[12,28],[16,11],[19,18],[20,52]],
  "3":[[3,55],[5,36],[12,28],[16,10],[19,16],[20,50]],
  "4":[[3,57],[5,38],[12,27],[16,9],[19,13],[20,47]],
  "5":[[3,59],[5,39],[12,27],[16,7],[19,11],[20,45]],
  "6":[[4,1],[5,41],[12,27],[16,6],[19,9],[20,42]],
  "7":[[4,3],[5,43],[12,26],[16,4],[19,6],[20,40]],
  "8":[[4,5],[5,44],[12,26],[16,3],[19,4],[20,37]],
  "9":[[4,6],[5,46],[12,26],[16,1],[19,2],[20,35]],
  "10":[[4,8],[5,48],[12,25],[16,0],[18,59],[20,32]],
  "11":[[4,10],[5,49],[12,25],[15,58],[18,57],[20,30]],
  "12":[[4,12],[5,51],[12,25],[15,56],[18,55],[20,27]],
  "13":[[4,14],[5,52],[12,24],[15,55],[18,52],[20,25]],
  "14":[[4,16],[5,54],[12,24],[15,53],[18,50],[20,22]],
  "15":[[4,17],[5,56],[12,24],[15,52],[18,48],[20,20]],
  "16":[[4,19],[5,57],[12,23],[15,50],[18,45],[20,17]],
  "17":[[4,21],[5,59],[12,23],[15,48],[18,43],[20,15]],
  "18":[[4,23],[6,1],[12,23],[15,47],[18,40],[20,13]],
  "19":[[4,24],[6,2],[12,22],[15,45],[18,38],[20,10]],
  "20":[[4,26],[6,4],[12,22],[15,43],[18,36],[20,8]],
  "21":[[4,28],[6,6],[12,21],[15,42],[18,33],[20,5]],
  "22":[[4,29],[6,7],[12,21],[15,40],[18,31],[20,3]],
  "23":[[4,31],[6,9],[12,21],[15,38],[18,28],[20,0]],
  "24":[[4,33],[6,11],[12,20],[15,37],[18,26],[19,58]],
  "25":[[4,35],[6,12],[12,20],[15,35],[18,24],[19,55]],
  "26":[[4,36],[6,14],[12,20],[15,33],[18,21],[19,53]],
  "27":[[4,38],[6,16],[12,19],[15,31],[18,19],[19,51]],
  "28":[[4,40],[6,17],[12,19],[15,30],[18,17],[19,48]],
  "29":[[4,41],[6,19],[12,19],[15,28],[18,14],[19,46]],
  "30":[[4,43],[6,21],[12,18],[15,26],[18,12],[19,44]]
},
"10": {
  "1":[[4,45],[6,22],[12,18],[15,24],[18,9],[19,41]],
  "2":[[4,46],[6,24],[12,17],[15,23],[18,7],[19,39]],
  "3":[[4,48],[6,26],[12,17],[15,21],[18,5],[19,37]],
  "4":[[4,49],[6,27],[12,17],[15,19],[18,2],[19,34]],
  "5":[[4,51],[6,29],[12,16],[15,17],[18,0],[19,32]],
  "6":[[4,53],[6,31],[12,16],[15,16],[17,58],[19,30]],
  "7":[[4,54],[6,32],[12,16],[15,14],[17,55],[19,27]],
  "8":[[4,56],[6,34],[12,15],[15,12],[17,53],[19,25]],
  "9":[[4,58],[6,36],[12,15],[15,10],[17,51],[19,23]],
  "10":[[4,59],[6,37],[12,15],[15,8],[17,48],[19,21]],
  "11":[[5,1],[6,39],[12,15],[15,7],[17,46],[19,19]],
  "12":[[5,2],[6,41],[12,14],[15,5],[17,44],[19,16]],
  "13":[[5,4],[6,43],[12,14],[15,3],[17,42],[19,14]],
  "14":[[5,6],[6,44],[12,14],[15,1],[17,39],[19,12]],
  "15":[[5,7],[6,46],[12,14],[15,0],[17,37],[19,10]],
  "16":[[5,9],[6,48],[12,13],[14,58],[17,35],[19,8]],
  "17":[[5,10],[6,49],[12,13],[14,56],[17,33],[19,6]],
  "18":[[5,12],[6,51],[12,13],[14,55],[17,30],[19,4]],
  "19":[[5,14],[6,53],[12,13],[14,53],[17,28],[19,2]],
  "20":[[5,15],[6,55],[12,12],[14,51],[17,26],[19,0]],
  "21":[[5,17],[6,57],[12,12],[14,49],[17,24],[18,58]],
  "22":[[5,18],[6,58],[12,12],[14,48],[17,22],[18,56]],
  "23":[[5,20],[7,0],[12,12],[14,46],[17,20],[18,54]],
  "24":[[5,21],[7,2],[12,12],[14,45],[17,18],[18,52]],
  "25":[[5,23],[7,4],[12,12],[14,43],[17,16],[18,50]],
  "26":[[5,25],[7,5],[12,12],[14,41],[17,14],[18,48]],
  "27":[[5,26],[7,7],[12,11],[14,40],[17,12],[18,47]],
  "28":[[5,28],[7,9],[12,11],[14,38],[17,10],[18,45]],
  "29":[[5,29],[7,11],[12,11],[14,37],[17,8],[18,43]],
  "30":[[5,31],[7,13],[12,11],[14,35],[17,6],[18,41]],
  "31":[[5,33],[7,15],[12,11],[14,34],[17,4],[18,40]]
},
"11": {
  "1":[[5,34],[7,16],[12,11],[14,32],[17,2],[18,38]],
  "2":[[5,36],[7,18],[12,11],[14,31],[17,0],[18,36]],
  "3":[[5,37],[7,20],[12,11],[14,29],[16,58],[18,35]],
  "4":[[5,39],[7,22],[12,11],[14,28],[16,56],[18,33]],
  "5":[[5,40],[7,24],[12,11],[14,26],[16,54],[18,32]],
  "6":[[5,42],[7,26],[12,11],[14,25],[16,53],[18,30]],
  "7":[[5,44],[7,27],[12,11],[14,24],[16,51],[18,29]],
  "8":[[5,45],[7,29],[12,11],[14,22],[16,49],[18,27]],
  "9":[[5,47],[7,31],[12,11],[14,21],[16,48],[18,26]],
  "10":[[5,48],[7,33],[12,11],[14,20],[16,46],[18,25]],
  "11":[[5,50],[7,35],[12,12],[14,19],[16,44],[18,23]],
  "12":[[5,51],[7,37],[12,12],[14,17],[16,43],[18,22]],
  "13":[[5,53],[7,38],[12,12],[14,16],[16,41],[18,21]],
  "14":[[5,54],[7,40],[12,12],[14,15],[16,40],[18,20]],
  "15":[[5,56],[7,42],[12,12],[14,14],[16,38],[18,18]],
  "16":[[5,57],[7,44],[12,12],[14,13],[16,37],[18,17]],
  "17":[[5,59],[7,46],[12,13],[14,12],[16,36],[18,16]],
  "18":[[6,0],[7,47],[12,13],[14,11],[16,34],[18,15]],
  "19":[[6,2],[7,49],[12,13],[14,10],[16,33],[18,14]],
  "20":[[6,3],[7,51],[12,13],[14,9],[16,32],[18,13]],
  "21":[[6,5],[7,53],[12,14],[14,8],[16,31],[18,12]],
  "22":[[6,6],[7,54],[12,14],[14,7],[16,29],[18,11]],
  "23":[[6,8],[7,56],[12,14],[14,6],[16,28],[18,10]],
  "24":[[6,9],[7,58],[12,14],[14,6],[16,27],[18,10]],
  "25":[[6,10],[7,59],[12,15],[14,5],[16,26],[18,9]],
  "26":[[6,12],[8,1],[12,15],[14,4],[16,25],[18,8]],
  "27":[[6,13],[8,3],[12,15],[14,4],[16,24],[18,8]],
  "28":[[6,14],[8,4],[12,16],[14,3],[16,23],[18,7]],
  "29":[[6,16],[8,6],[12,16],[14,2],[16,22],[18,6]],
  "30":[[6,17],[8,7],[12,16],[14,2],[16,22],[18,6]]
},
"12": {
  "1":[[6,18],[8,9],[12,17],[14,1],[16,21],[18,5]],
  "2":[[6,20],[8,10],[12,17],[14,1],[16,20],[18,5]],
  "3":[[6,21],[8,12],[12,18],[14,0],[16,20],[18,4]],
  "4":[[6,22],[8,13],[12,18],[14,0],[16,19],[18,4]],
  "5":[[6,23],[8,14],[12,18],[14,0],[16,19],[18,4]],
  "6":[[6,24],[8,16],[12,19],[14,0],[16,18],[18,3]],
  "7":[[6,25],[8,17],[12,19],[13,59],[16,18],[18,3]],
  "8":[[6,26],[8,18],[12,20],[13,59],[16,17],[18,3]],
  "9":[[6,27],[8,19],[12,20],[13,59],[16,17],[18,3]],
  "10":[[6,28],[8,21],[12,21],[13,59],[16,17],[18,3]],
  "11":[[6,29],[8,22],[12,21],[13,59],[16,16],[18,3]],
  "12":[[6,30],[8,23],[12,22],[13,59],[16,16],[18,3]],
  "13":[[6,31],[8,24],[12,22],[13,59],[16,16],[18,3]],
  "14":[[6,32],[8,25],[12,22],[13,59],[16,16],[18,3]],
  "15":[[6,33],[8,26],[12,23],[13,59],[16,16],[18,3]],
  "16":[[6,34],[8,26],[12,23],[13,59],[16,16],[18,3]],
  "17":[[6,34],[8,27],[12,24],[14,0],[16,16],[18,3]],
  "18":[[6,35],[8,28],[12,24],[14,0],[16,17],[18,4]],
  "19":[[6,36],[8,29],[12,25],[14,0],[16,17],[18,4]],
  "20":[[6,36],[8,29],[12,25],[14,0],[16,17],[18,4]],
  "21":[[6,37],[8,30],[12,26],[14,1],[16,18],[18,5]],
  "22":[[6,37],[8,31],[12,26],[14,1],[16,18],[18,5]],
  "23":[[6,38],[8,31],[12,27],[14,2],[16,19],[18,6]],
  "24":[[6,38],[8,31],[12,27],[14,2],[16,19],[18,6]],
  "25":[[6,39],[8,32],[12,28],[14,3],[16,20],[18,7]],
  "26":[[6,39],[8,32],[12,28],[14,3],[16,20],[18,7]],
  "27":[[6,39],[8,32],[12,29],[14,4],[16,21],[18,8]],
  "28":[[6,39],[8,33],[12,29],[14,5],[16,22],[18,9]],
  "29":[[6,40],[8,33],[12,30],[14,6],[16,23],[18,9]],
  "30":[[6,40],[8,33],[12,30],[14,6],[16,23],[18,10]],
  "31":[[6,40],[8,33],[12,31],[14,7],[16,24],[18,11]]
}
}
